%YAML 1.1
%TAG !u! tag:unity3d.com,2011:
--- !u!74 &7400000
AnimationClip:
  m_ObjectHideFlags: 0
  m_CorrespondingSourceObject: {fileID: 0}
  m_PrefabInstance: {fileID: 0}
  m_PrefabAsset: {fileID: 0}
  m_Name: Idle
  serializedVersion: 6
  m_Legacy: 0
  m_Compressed: 0
  m_UseHighQualityCurve: 1
  m_RotationCurves: []
  m_CompressedRotationCurves: []
  m_EulerCurves: []
  m_PositionCurves: []
  m_ScaleCurves: []
  m_FloatCurves: []
  m_PPtrCurves:
  - curve:
    - time: 0
      value: {fileID: 21300000, guid: 951e38058cf895a4489b77cf81a054cb, type: 3}
    - time: 0.083333336
      value: {fileID: 21300000, guid: ca27eea1995d3a1439ebe03975ba5520, type: 3}
    - time: 0.16666667
      value: {fileID: 21300000, guid: 4b1ee6875d866354f8150802151b90ea, type: 3}
    - time: 0.25
      value: {fileID: 21300000, guid: 43da0528536ff7c4cae54449cb57026b, type: 3}
    - time: 0.33333334
      value: {fileID: 21300000, guid: 3ad9cef6f39fc6543b0eaa0b74180b08, type: 3}
    - time: 0.41666666
      value: {fileID: 21300000, guid: bf58c8fa138a15743a2e8854b25c5139, type: 3}
    - time: 0.5
      value: {fileID: 21300000, guid: d4fe0a51a7323a94d9789acad56d3cbb, type: 3}
    - time: 0.5833333
      value: {fileID: 21300000, guid: 3a9b00ea4517ea54fa2b41e0ec537f4a, type: 3}
    - time: 0.6666667
      value: {fileID: 21300000, guid: fa7fbf5d6f19c81408e4d8f94013f876, type: 3}
    - time: 0.75
      value: {fileID: 21300000, guid: 09f911a86d9134945b753ed03f704a3b, type: 3}
    attribute: m_Sprite
    path: 
    classID: 212
    script: {fileID: 0}
  m_SampleRate: 12
  m_WrapMode: 0
  m_Bounds:
    m_Center: {x: 0, y: 0, z: 0}
    m_Extent: {x: 0, y: 0, z: 0}
  m_ClipBindingConstant:
    genericBindings:
    - serializedVersion: 2
      path: 0
      attribute: 0
      script: {fileID: 0}
      typeID: 212
      customType: 23
      isPPtrCurve: 1
    pptrCurveMapping:
    - {fileID: 21300000, guid: 951e38058cf895a4489b77cf81a054cb, type: 3}
    - {fileID: 21300000, guid: ca27eea1995d3a1439ebe03975ba5520, type: 3}
    - {fileID: 21300000, guid: 4b1ee6875d866354f8150802151b90ea, type: 3}
    - {fileID: 21300000, guid: 43da0528536ff7c4cae54449cb57026b, type: 3}
    - {fileID: 21300000, guid: 3ad9cef6f39fc6543b0eaa0b74180b08, type: 3}
    - {fileID: 21300000, guid: bf58c8fa138a15743a2e8854b25c5139, type: 3}
    - {fileID: 21300000, guid: d4fe0a51a7323a94d9789acad56d3cbb, type: 3}
    - {fileID: 21300000, guid: 3a9b00ea4517ea54fa2b41e0ec537f4a, type: 3}
    - {fileID: 21300000, guid: fa7fbf5d6f19c81408e4d8f94013f876, type: 3}
    - {fileID: 21300000, guid: 09f911a86d9134945b753ed03f704a3b, type: 3}
  m_AnimationClipSettings:
    serializedVersion: 2
    m_AdditiveReferencePoseClip: {fileID: 0}
    m_AdditiveReferencePoseTime: 0
    m_StartTime: 0
    m_StopTime: 0.8333333
    m_OrientationOffsetY: 0
    m_Level: 0
    m_CycleOffset: 0
    m_HasAdditiveReferencePose: 0
    m_LoopTime: 1
    m_LoopBlend: 0
    m_LoopBlendOrientation: 0
    m_LoopBlendPositionY: 0
    m_LoopBlendPositionXZ: 0
    m_KeepOriginalOrientation: 0
    m_KeepOriginalPositionY: 1
    m_KeepOriginalPositionXZ: 0
    m_HeightFromFeet: 0
    m_Mirror: 0
  m_EditorCurves: []
  m_EulerEditorCurves: []
  m_HasGenericRootTransform: 0
  m_HasMotionFloatCurves: 0
  m_Events: []
